<?xml version="1.0" encoding="utf-8"?>
<!-- Generator: Adobe Illustrator 21.0.0, SVG Export Plug-In . SVG Version: 6.00 Build 0)  -->
<svg version="1.0" id="Layer_1" xmlns="http://www.w3.org/2000/svg"  x="0px" y="0px"
	 viewBox="0 0 330 100" style="enable-background:new 0 0 330 100;" xml:space="preserve">
<style type="text/css">
	.st0{fill:#FFFFFF;}
	.st1{fill:#753872;}
	.st2{fill:#7F4B7F;}
	.st3{fill:#FFD112;}
	.st4{opacity:0.1;enable-background:new    ;}
	.st5{fill:#E8E8E8;}
	.st6{fill:#0F3854;}
	.st7{fill:none;}
	.st8{fill:#DD3401;}
	.st9{opacity:0.8;fill:#0F3854;enable-background:new    ;}
	.st10{opacity:0.7;fill:#0F3854;enable-background:new    ;}
	.st11{fill:#FF6CD9;}
	.st12{fill:#6ACE00;}
	.st13{fill:#0E247F;}
	.st14{fill:#E51A1A;}
	.st15{fill:#F6B98A;}
	.st16{fill:#EFB73A;}
	.st17{fill:#B76565;}
	.st18{fill:#5E3B28;}
	.st19{opacity:0.2;}
</style>
<polygon class="st0" points="158.1,16 158.1,75.7 201.4,75.7 201.4,26.1 191.7,16 "/>
<g id="Layer_5">
	<rect id="Background_1_21_" class="st1" width="330" height="100"/>
</g>
<g id="Layer_6">
	<rect id="Background_1_1_" x="10" y="9" class="st2" width="307" height="82"/>
</g>
<g id="Layer_14">
</g>
<g id="Layer_13">
</g>
<g id="Layer_16">
</g>
<g id="Layer_7">
	<polygon class="st3" points="20.4,15 20.4,75.7 64.4,75.7 64.4,25.2 54.6,15 	"/>
	<polygon class="st4" points="54.8,25.3 64.7,35.2 64.7,25.3 57.5,21.2 	"/>
	<polygon class="st5" points="64.4,25.2 54.6,25.4 54.6,15 	"/>
	<rect x="26.5" y="27.1" class="st6" width="5.6" height="5.6"/>
	<line class="st7" x1="32.1" y1="35.2" x2="26.5" y2="35.2"/>
	<rect x="32.1" y="33.9" class="st8" width="7.5" height="1.3"/>
	<rect x="39.6" y="33.9" class="st6" width="7.7" height="1.3"/>
	<rect x="34.1" y="27.1" class="st9" width="5.6" height="5.6"/>
	<rect x="41.8" y="27.1" class="st10" width="5.6" height="5.6"/>
</g>
<g id="Layer_9">
	<polygon class="st11" points="67.4,15.6 67.4,75.7 111,75.7 111,25.7 101.3,15.6 	"/>
	<polygon class="st4" points="101.5,25.7 111.3,35.5 111.3,25.7 104.1,21.7 	"/>
	<polygon class="st5" points="111,25.7 101.3,25.8 101.3,15.6 	"/>
	<rect x="73.4" y="27.5" class="st6" width="5.5" height="5.5"/>
	<line class="st7" x1="84.6" y1="54.5" x2="79.7" y2="54.5"/>
	<rect x="79" y="34.3" class="st8" width="7.4" height="1.3"/>
	<rect x="86.5" y="34.3" class="st6" width="7.6" height="1.3"/>
	<rect x="81" y="27.5" class="st9" width="5.5" height="5.5"/>
	<rect x="88.6" y="27.5" class="st10" width="5.5" height="5.5"/>
	<polygon class="st12" points="113.1,16 113.1,76 156.5,76 156.5,26 146.9,16 	"/>
	<rect x="119.2" y="28" class="st6" width="5.5" height="5.5"/>
	<line class="st7" x1="232.3" y1="28" x2="228.1" y2="28"/>
	<rect x="124.7" y="34.7" class="st8" width="7.4" height="1.2"/>
	<rect x="132.1" y="34.7" class="st6" width="7.7" height="1.2"/>
	<rect x="126.6" y="28" class="st9" width="5.5" height="5.5"/>
	<rect x="134.2" y="28" class="st10" width="5.5" height="5.5"/>
	<polygon class="st13" points="158,16.2 158,75.9 201.3,75.9 201.3,26.2 191.6,16.2 	"/>
	<polygon class="st4" points="191.8,26.6 201.5,36.3 201.5,26.6 194.5,22.6 	"/>
	<polygon class="st5" points="201.3,26.5 191.6,26.6 191.6,16.5 	"/>
	<rect x="164" y="28.1" class="st6" width="5.4" height="5.4"/>
	<line class="st7" x1="286.4" y1="52.2" x2="281.6" y2="52.2"/>
	<rect x="169.5" y="34.8" class="st8" width="7.4" height="1.3"/>
	<rect x="176.9" y="34.8" class="st6" width="7.6" height="1.3"/>
	<rect x="171.4" y="28.1" class="st9" width="5.4" height="5.4"/>
	<rect x="179" y="28.1" class="st10" width="5.4" height="5.4"/>
	<polygon class="st5" points="156.5,26 146.9,26.2 146.9,16 	"/>
</g>
<polyline class="st4" points="146.7,26.4 156.5,36.2 156.5,26.4 "/>
<polygon class="st14" points="203,16.2 203,75.9 246.3,75.9 246.3,26.2 236.6,16.2 "/>
<polygon class="st4" points="236.8,26.6 246.5,36.3 246.5,26.6 239.5,22.6 "/>
<polygon class="st5" points="246.3,26.5 236.6,26.6 236.6,16.5 "/>
<rect x="209" y="28.1" class="st6" width="5.4" height="5.4"/>
<rect x="214.5" y="34.8" class="st8" width="7.4" height="1.3"/>
<rect x="221.9" y="34.8" class="st6" width="7.6" height="1.3"/>
<rect x="216.4" y="28.1" class="st9" width="5.4" height="5.4"/>
<rect x="224" y="28.1" class="st10" width="5.4" height="5.4"/>
<rect x="20.5" y="79.8" class="st6" width="226.1" height="7.5"/>
<g id="Man_1_">
	<polygon class="st15" points="274.4,51.5 275,45.8 289.1,42.9 288.9,47.4 289.5,51.1 287.4,53 282.9,54.7 276.6,53.2 	"/>
	<path class="st16" d="M272.5,51.1l2.2-2.3c0,0,2.2,5.4,7.5,5.1c5.4-0.3,6.9-4.8,6.9-4.8l2.8,2.1l0.2,5.2c0,0-10.8,2.8-12.5,2.4
		c-1.7-0.4-7.7-3.2-7.7-3.2L272.5,51.1z"/>
	<path class="st17" d="M291.9,51.1c-1.9,5.1-9.7,5.6-9.7,5.6s-7.8-0.5-9.7-5.6c0,0-18,4.4-19.5,21.7c0,0,7.3,14.4,29.2,15.8
		c21.9-1.5,29.2-15.8,29.2-15.8C310,55.5,291.9,51.1,291.9,51.1z"/>
	<path class="st18" d="M295.5,20.5c-1.6-5.7-13.3-7.5-13.3-7.5s-11.7,1.8-13.3,7.5c-1.6,5.7-0.4,12.3,1.3,17.4
		c1.7,5.1,5.1,11.4,11.9,13.9c6.8-2.4,10.2-8.8,11.9-13.9C295.8,32.8,297.1,26.3,295.5,20.5z"/>
	<path class="st19" d="M284.2,13.4c3.3,4.9,10,18.3-0.5,37.8c5.8-2.8,8.8-8.5,10.4-13.2c1.7-5.1,2.9-11.7,1.3-17.4
		C294.3,16.3,287.6,14.2,284.2,13.4z"/>
	<path class="st19" d="M311.4,72.8c-1.2-14.1-13.3-19.6-17.8-21.2c4.4,5.6,13.2,18.6,11,28.9C309.5,76.6,311.4,72.8,311.4,72.8z"/>
</g>
<path class="st0" d="M266.6,73.3h0.8v5.6h-0.8V73.3z"/>
<path class="st0" d="M272.2,76.1h0.8v2.6c-0.1,0-0.2,0-0.3,0.1c-0.1,0-0.3,0.1-0.4,0.1c-0.2,0-0.3,0-0.5,0.1c-0.2,0-0.4,0-0.6,0
	c-0.4,0-0.8-0.1-1.1-0.2c-0.3-0.1-0.6-0.3-0.8-0.6c-0.2-0.2-0.4-0.6-0.5-0.9c-0.1-0.4-0.2-0.8-0.2-1.2c0-0.5,0.1-0.9,0.2-1.2
	c0.1-0.4,0.3-0.7,0.6-0.9c0.2-0.2,0.5-0.4,0.9-0.6c0.3-0.1,0.7-0.2,1-0.2c0.3,0,0.5,0,0.7,0c0.2,0,0.4,0.1,0.5,0.1
	c0.1,0,0.3,0.1,0.3,0.1c0.1,0,0.1,0.1,0.2,0.1l-0.3,0.7c-0.2-0.1-0.4-0.2-0.6-0.3c-0.3-0.1-0.5-0.1-0.8-0.1c-0.3,0-0.5,0.1-0.8,0.2
	c-0.2,0.1-0.4,0.3-0.6,0.4c-0.2,0.2-0.3,0.4-0.4,0.7c-0.1,0.3-0.1,0.6-0.1,0.9c0,0.3,0,0.6,0.1,0.9c0.1,0.3,0.2,0.5,0.4,0.7
	c0.2,0.2,0.4,0.3,0.6,0.5c0.2,0.1,0.5,0.2,0.8,0.2c0.2,0,0.4,0,0.6,0c0.2,0,0.3,0,0.3-0.1V76.1z"/>
<path class="st0" d="M278.1,78.9c-0.1-0.2-0.3-0.4-0.4-0.7c-0.2-0.2-0.3-0.5-0.5-0.8c-0.2-0.3-0.4-0.5-0.6-0.8
	c-0.2-0.3-0.4-0.5-0.6-0.8c-0.2-0.3-0.4-0.5-0.5-0.7c-0.2-0.2-0.3-0.4-0.5-0.6v4.4h-0.8v-5.6h0.6c0.3,0.3,0.5,0.6,0.8,0.9
	c0.3,0.4,0.6,0.7,0.9,1.1c0.3,0.4,0.6,0.8,0.8,1.1c0.3,0.4,0.5,0.7,0.6,1v-4.1h0.8v5.6H278.1z"/>
<path class="st0" d="M289.1,76.1c0-0.5,0.1-0.9,0.2-1.3c0.1-0.4,0.3-0.7,0.6-0.9c0.2-0.2,0.5-0.4,0.9-0.6c0.3-0.1,0.7-0.2,1-0.2
	c0.4,0,0.7,0.1,1,0.2c0.3,0.1,0.6,0.3,0.8,0.6c0.2,0.2,0.4,0.6,0.6,0.9c0.1,0.4,0.2,0.8,0.2,1.3c0,0.5-0.1,0.9-0.2,1.3
	c-0.1,0.4-0.3,0.7-0.6,0.9c-0.2,0.2-0.5,0.4-0.8,0.6c-0.3,0.1-0.7,0.2-1,0.2c-0.4,0-0.7-0.1-1-0.2c-0.3-0.1-0.6-0.3-0.9-0.6
	c-0.2-0.2-0.4-0.6-0.6-0.9C289.2,77,289.1,76.6,289.1,76.1z M290,76.1c0,0.3,0,0.6,0.1,0.9c0.1,0.3,0.2,0.5,0.4,0.7
	c0.2,0.2,0.4,0.3,0.6,0.4c0.2,0.1,0.5,0.2,0.8,0.2c0.3,0,0.5-0.1,0.8-0.2c0.2-0.1,0.4-0.3,0.6-0.4c0.2-0.2,0.3-0.4,0.4-0.7
	c0.1-0.3,0.1-0.6,0.1-0.9c0-0.3,0-0.6-0.1-0.9c-0.1-0.3-0.2-0.5-0.4-0.7c-0.2-0.2-0.4-0.3-0.6-0.4c-0.2-0.1-0.5-0.2-0.8-0.2
	c-0.3,0-0.5,0.1-0.8,0.2c-0.2,0.1-0.4,0.3-0.6,0.4c-0.2,0.2-0.3,0.4-0.4,0.7C290,75.4,290,75.7,290,76.1z"/>
<path class="st0" d="M298.4,76.5c0.1,0.1,0.2,0.2,0.3,0.4c0.1,0.2,0.3,0.4,0.4,0.6c0.1,0.2,0.3,0.4,0.4,0.7c0.1,0.2,0.3,0.5,0.4,0.7
	H299c-0.1-0.2-0.2-0.4-0.4-0.6c-0.1-0.2-0.3-0.4-0.4-0.6c-0.1-0.2-0.3-0.4-0.4-0.5c-0.1-0.2-0.2-0.3-0.3-0.4c-0.1,0-0.1,0-0.2,0
	c-0.1,0-0.1,0-0.2,0h-0.7v2.2h-0.8v-5.5c0.2-0.1,0.5-0.1,0.7-0.1c0.3,0,0.5,0,0.7,0c0.8,0,1.4,0.1,1.8,0.4c0.4,0.3,0.6,0.7,0.6,1.3
	c0,0.4-0.1,0.7-0.3,1C299.1,76.2,298.8,76.4,298.4,76.5z M297.2,73.9c-0.3,0-0.6,0-0.8,0V76h0.6c0.3,0,0.5,0,0.7,0
	c0.2,0,0.4-0.1,0.5-0.2c0.1-0.1,0.3-0.2,0.3-0.3c0.1-0.1,0.1-0.3,0.1-0.5c0-0.2,0-0.4-0.1-0.5c-0.1-0.1-0.2-0.3-0.3-0.3
	c-0.1-0.1-0.3-0.1-0.5-0.2C297.6,73.9,297.4,73.9,297.2,73.9z"/>
<path class="st0" d="M284.2,78.9c-0.1-0.2-0.2-0.5-0.3-0.7c-0.1-0.2-0.2-0.5-0.3-0.7h-2.5l-0.5,1.4h-0.8c0.2-0.6,0.4-1.1,0.6-1.6
	c0.2-0.5,0.4-1,0.6-1.4c0.2-0.5,0.4-0.9,0.5-1.3c0.2-0.4,0.4-0.8,0.6-1.2h0.7c0.2,0.4,0.4,0.8,0.6,1.2c0.2,0.4,0.4,0.8,0.5,1.3
	c0.2,0.5,0.4,0.9,0.6,1.4c0.2,0.5,0.4,1.1,0.6,1.6H284.2z M283.4,76.8c-0.2-0.5-0.3-0.9-0.5-1.4c-0.2-0.4-0.3-0.9-0.5-1.3
	c-0.2,0.4-0.4,0.8-0.5,1.3c-0.2,0.4-0.3,0.9-0.5,1.4H283.4z"/>
<path class="st0" d="M301.8,78.9v-2.2c-0.4-0.6-0.7-1.1-1.1-1.7c-0.3-0.6-0.6-1.1-0.9-1.7h0.9c0.2,0.4,0.4,0.9,0.7,1.3
	c0.3,0.5,0.5,0.9,0.8,1.3c0.3-0.4,0.5-0.9,0.8-1.3c0.3-0.5,0.5-0.9,0.7-1.3h0.9c-0.3,0.5-0.6,1.1-0.9,1.6c-0.3,0.6-0.7,1.1-1,1.7
	v2.3H301.8z"/>
<path class="st0" d="M263.7,78.2c0.8,0,1.2-0.3,1.2-0.8c0-0.2,0-0.3-0.1-0.4c-0.1-0.1-0.2-0.2-0.3-0.3c-0.1-0.1-0.2-0.2-0.4-0.2
	c-0.1-0.1-0.3-0.1-0.5-0.2c-0.2-0.1-0.4-0.1-0.5-0.2c-0.2-0.1-0.3-0.2-0.4-0.3c-0.1-0.1-0.2-0.2-0.3-0.4c-0.1-0.2-0.1-0.3-0.1-0.6
	c0-0.5,0.2-0.8,0.5-1.1c0.3-0.3,0.7-0.4,1.3-0.4c0.3,0,0.6,0,0.9,0.1c0.3,0.1,0.5,0.1,0.6,0.2l-0.2,0.6c-0.1-0.1-0.3-0.1-0.5-0.2
	c-0.2-0.1-0.5-0.1-0.7-0.1c-0.1,0-0.3,0-0.4,0c-0.1,0-0.2,0.1-0.3,0.1c-0.1,0.1-0.2,0.1-0.2,0.2c-0.1,0.1-0.1,0.2-0.1,0.3
	c0,0.1,0,0.3,0.1,0.4c0.1,0.1,0.1,0.2,0.2,0.3c0.1,0.1,0.2,0.1,0.4,0.2c0.1,0.1,0.3,0.1,0.4,0.2c0.2,0.1,0.4,0.2,0.6,0.3
	c0.2,0.1,0.4,0.2,0.5,0.3c0.1,0.1,0.2,0.3,0.3,0.5c0.1,0.2,0.1,0.4,0.1,0.6c0,0.5-0.2,0.8-0.5,1.1c-0.3,0.2-0.8,0.4-1.4,0.4
	c-0.2,0-0.4,0-0.6,0c-0.2,0-0.3-0.1-0.5-0.1c-0.1,0-0.3-0.1-0.4-0.1c-0.1,0-0.2-0.1-0.2-0.1l0.2-0.6c0.1,0.1,0.3,0.1,0.5,0.2
	C263.1,78.1,263.4,78.2,263.7,78.2z"/>
<path class="st0" d="M288.9,73.4V74h-1.7v4.8h-0.8V74h-1.7v-0.7H288.9z"/>
</svg>
