<?xml version="1.0" encoding="utf-8"?>
<!-- Generator: Adobe Illustrator 21.0.0, SVG Export Plug-In . SVG Version: 6.00 Build 0)  -->
<svg version="1.1" xmlns="http://www.w3.org/2000/svg"  x="0px" y="0px"
	 viewBox="0 0 330 100" style="enable-background:new 0 0 330 100;" xml:space="preserve">
<style type="text/css">
	.st0{fill:#E74C3C;}
	.st1{fill:#F46E67;}
	.st2{fill:#FFD112;}
	.st3{opacity:0.1;}
	.st4{fill:#E8E8E8;}
	.st5{fill:#0F3854;}
	.st6{fill:#00B09E;}
	.st7{fill:#DD3401;}
	.st8{opacity:0.8;fill:#0F3854;}
	.st9{opacity:0.7;fill:#0F3854;}
	.st10{fill:#FF6CD9;}
	.st11{fill:#6ACE00;}
	.st12{fill:#2837C6;}
	.st13{fill:#F6B98A;}
	.st14{fill:#EFB73A;}
	.st15{fill:#8DC4FF;}
	.st16{fill:#5E3B28;}
	.st17{opacity:0.2;enable-background:new    ;}
	.st18{fill:#2C3135;}
	.st19{fill:#ECF0F1;}
	.st20{fill:#183968;}
	.st21{fill:#FF614F;}
	.st22{fill:#84E570;}
	.st23{fill:#7D57FF;}
	.st24{fill:#E2E1E0;}
	.st25{fill:#F95A78;}
	.st26{fill:#0D5FA3;}
	.st27{fill:#231F20;}
</style>
<g id="Layer_5">
	<rect id="Background_1_21_" class="st0" width="330" height="100"/>
</g>
<g id="Layer_6">
	<rect id="Background_1_1_" x="10" y="9" class="st1" width="307" height="82"/>
</g>
<g id="Layer_14">
</g>
<g id="Layer_13">
</g>
<g id="Layer_16">
</g>
<g id="Layer_7">
	<polygon class="st2" points="20.4,15 20.4,75.7 64.4,75.7 64.4,25.2 54.6,15 	"/>
	<polygon class="st3" points="54.8,25.3 64.7,35.2 64.7,25.3 57.5,21.2 	"/>
	<polygon class="st4" points="64.4,25.2 54.6,25.4 54.6,15 	"/>
	<rect x="26.5" y="27.1" class="st5" width="5.6" height="5.6"/>
	<line class="st6" x1="32.1" y1="35.2" x2="26.5" y2="35.2"/>
	<rect x="32.1" y="33.9" class="st7" width="7.5" height="1.3"/>
	<rect x="39.6" y="33.9" class="st5" width="7.7" height="1.3"/>
	<rect x="34.1" y="27.1" class="st8" width="5.6" height="5.6"/>
	<rect x="41.8" y="27.1" class="st9" width="5.6" height="5.6"/>
</g>
<g id="Layer_9">
	<polygon class="st10" points="74.4,37 74.4,89.7 112.6,89.7 112.6,45.9 104.1,37 	"/>
	<polygon class="st3" points="104.3,45.9 112.9,54.5 112.9,45.9 106.6,42.4 	"/>
	<polygon class="st4" points="112.6,45.9 104.1,46 104.1,37 	"/>
	<rect x="79.7" y="47.5" class="st5" width="4.8" height="4.8"/>
	<line class="st6" x1="84.6" y1="54.5" x2="79.7" y2="54.5"/>
	<rect x="84.6" y="53.4" class="st7" width="6.5" height="1.1"/>
	<rect x="91.1" y="53.4" class="st5" width="6.7" height="1.1"/>
	<rect x="86.3" y="47.5" class="st8" width="4.8" height="4.8"/>
	<rect x="93" y="47.5" class="st9" width="4.8" height="4.8"/>
	<polygon class="st11" points="223.4,12.7 223.4,58.7 256.7,58.7 256.7,20.4 249.3,12.7 	"/>
	<polygon class="st3" points="249.5,20.5 257,28 257,20.5 251.6,17.4 	"/>
	<polygon class="st4" points="256.7,20.4 249.3,20.5 249.3,12.7 	"/>
	<rect x="228.1" y="21.9" class="st5" width="4.2" height="4.2"/>
	<line class="st6" x1="232.3" y1="28" x2="228.1" y2="28"/>
	<rect x="232.3" y="27" class="st7" width="5.7" height="0.9"/>
	<rect x="238" y="27" class="st5" width="5.9" height="0.9"/>
	<rect x="233.8" y="21.9" class="st8" width="4.2" height="4.2"/>
	<rect x="239.6" y="21.9" class="st9" width="4.2" height="4.2"/>
	<polygon class="st12" points="276.4,35 276.4,86.7 313.9,86.7 313.9,43.7 305.5,35 	"/>
	<polygon class="st3" points="305.7,43.8 314.1,52.2 314.1,43.8 308,40.3 	"/>
	<polygon class="st4" points="313.9,43.7 305.5,43.8 305.5,35 	"/>
	<rect x="281.6" y="45.3" class="st5" width="4.7" height="4.7"/>
	<line class="st6" x1="286.4" y1="52.2" x2="281.6" y2="52.2"/>
	<rect x="286.4" y="51.1" class="st7" width="6.4" height="1.1"/>
	<rect x="292.8" y="51.1" class="st5" width="6.6" height="1.1"/>
	<rect x="288" y="45.3" class="st8" width="4.7" height="4.7"/>
	<rect x="294.6" y="45.3" class="st9" width="4.7" height="4.7"/>
	<g id="Layer_8">
		<g id="Layer_7_1_">
			<g id="Man_2_">
				<polygon class="st13" points="253.4,50.5 254,44.8 268.1,41.9 267.9,46.4 268.5,50.1 266.4,52 261.9,53.7 255.6,52.2 				"/>
				<path class="st14" d="M251.5,50.1l2.2-2.3c0,0,2.2,5.4,7.5,5.1c5.4-0.3,6.9-4.8,6.9-4.8l2.8,2.1l0.2,5.2c0,0-10.8,2.8-12.5,2.4
					c-1.7-0.4-7.7-3.2-7.7-3.2L251.5,50.1z"/>
				<path class="st15" d="M270.9,50.1c-1.9,5.1-9.7,5.6-9.7,5.6s-7.8-0.5-9.7-5.6c0,0-18,4.4-19.5,21.7c0,0,7.3,14.4,29.2,15.8
					c21.9-1.5,29.2-15.8,29.2-15.8C289,54.5,270.9,50.1,270.9,50.1z"/>
				<path class="st16" d="M274.5,19.5c-1.6-5.7-13.3-7.5-13.3-7.5s-11.7,1.8-13.3,7.5s-0.4,12.3,1.3,17.4s5.1,11.4,11.9,13.9
					c6.8-2.4,10.2-8.8,11.9-13.9C274.8,31.8,276.1,25.3,274.5,19.5z"/>
				<path class="st17" d="M263.2,12.4c3.3,4.9,10,18.3-0.5,37.8c5.8-2.8,8.8-8.5,10.4-13.2c1.7-5.1,2.9-11.7,1.3-17.4
					C273.3,15.3,266.6,13.2,263.2,12.4z"/>
				<path class="st17" d="M290.4,71.8c-1.2-14.1-13.3-19.6-17.8-21.2c4.4,5.6,13.2,18.6,11,28.9C288.5,75.6,290.4,71.8,290.4,71.8z"
					/>
			</g>
		</g>
		<g id="Layer_11_1_">
			<path class="st18" d="M246.8,76.2c0.8,0,1.2-0.3,1.2-0.8c0-0.2,0-0.3-0.1-0.4s-0.2-0.2-0.3-0.3c-0.1-0.1-0.3-0.2-0.4-0.2
				c-0.2-0.1-0.3-0.1-0.5-0.2s-0.4-0.1-0.6-0.2c-0.2-0.1-0.3-0.2-0.5-0.3c-0.1-0.1-0.2-0.3-0.3-0.4c-0.1-0.2-0.1-0.4-0.1-0.6
				c0-0.5,0.2-0.8,0.5-1.1c0.3-0.3,0.8-0.4,1.3-0.4c0.3,0,0.6,0,0.9,0.1c0.3,0.1,0.5,0.1,0.6,0.2l-0.2,0.6c-0.1-0.1-0.3-0.1-0.5-0.2
				s-0.5-0.1-0.8-0.1c-0.1,0-0.3,0-0.4,0c-0.1,0-0.2,0.1-0.3,0.1c-0.1,0.1-0.2,0.1-0.2,0.2c-0.1,0.1-0.1,0.2-0.1,0.3
				c0,0.1,0,0.3,0.1,0.4s0.1,0.2,0.2,0.3c0.1,0.1,0.2,0.1,0.4,0.2c0.1,0.1,0.3,0.1,0.5,0.2s0.5,0.2,0.6,0.3c0.2,0.1,0.4,0.2,0.5,0.3
				c0.1,0.1,0.3,0.3,0.3,0.5c0.1,0.2,0.1,0.4,0.1,0.7c0,0.5-0.2,0.8-0.5,1.1c-0.3,0.3-0.8,0.4-1.5,0.4c-0.2,0-0.4,0-0.6,0
				c-0.2,0-0.3-0.1-0.5-0.1c-0.1,0-0.3-0.1-0.4-0.1c-0.1,0-0.2-0.1-0.2-0.1l0.2-0.6c0.1,0.1,0.3,0.1,0.5,0.2
				C246.1,76.1,246.4,76.2,246.8,76.2z"/>
			<path class="st18" d="M272.3,76.9c-0.1-0.2-0.3-0.4-0.4-0.7c-0.2-0.2-0.3-0.5-0.5-0.8s-0.4-0.5-0.6-0.8s-0.4-0.5-0.6-0.8
				s-0.4-0.5-0.5-0.7c-0.2-0.2-0.3-0.4-0.5-0.6v4.3h-0.8v-5.6h0.6c0.3,0.3,0.5,0.6,0.8,0.9c0.3,0.4,0.6,0.7,0.9,1.1s0.5,0.7,0.8,1.1
				c0.2,0.4,0.5,0.7,0.6,1v-4.1h0.8v5.6L272.3,76.9L272.3,76.9z"/>
			<path class="st18" d="M264.3,76.9v-5.6h3.4V72h-2.6v1.7h2.3v0.7h-2.3v1.9h2.8V77L264.3,76.9L264.3,76.9z"/>
			<path class="st18" d="M256.2,77c-0.4,0-0.7-0.1-0.9-0.2c-0.3-0.1-0.5-0.3-0.7-0.5s-0.3-0.4-0.4-0.7c-0.1-0.3-0.1-0.6-0.1-0.9
				v-3.5h0.8v3.4c0,0.6,0.1,1,0.4,1.2c0.2,0.3,0.6,0.4,1,0.4c0.2,0,0.4,0,0.5-0.1c0.2-0.1,0.3-0.2,0.4-0.3c0.1-0.1,0.2-0.3,0.3-0.5
				c0.1-0.2,0.1-0.4,0.1-0.7v-3.4h0.8v3.5c0,0.3,0,0.6-0.1,0.9s-0.2,0.5-0.4,0.7c-0.2,0.2-0.4,0.3-0.7,0.5
				C256.9,76.9,256.6,77,256.2,77z"/>
			<path class="st18" d="M253.3,71.3V72h-1.8v4.9h-0.8V72H249v-0.7H253.3z"/>
			<path class="st18" d="M263.6,74c0,0.5-0.1,0.9-0.2,1.3s-0.4,0.7-0.6,0.9c-0.3,0.2-0.6,0.4-1,0.5s-0.8,0.2-1.3,0.2
				c-0.2,0-0.5,0-0.7,0c-0.3,0-0.5-0.1-0.7-0.1v-5.4c0.2-0.1,0.5-0.1,0.7-0.1c0.3,0,0.5,0,0.7,0c0.5,0,0.9,0.1,1.3,0.2
				s0.7,0.3,1,0.5s0.5,0.5,0.6,0.9C263.5,73.1,263.6,73.5,263.6,74z M260.6,76.1c0.7,0,1.3-0.2,1.7-0.6c0.4-0.4,0.5-0.9,0.5-1.6
				s-0.2-1.2-0.5-1.6c-0.4-0.4-0.9-0.6-1.7-0.6c-0.2,0-0.4,0-0.5,0s-0.2,0-0.3,0V76c0,0,0.1,0,0.3,0
				C260.2,76.1,260.4,76.1,260.6,76.1z"/>
			<path class="st18" d="M277.8,71.3V72H276v4.9h-0.8V72h-1.8v-0.7H277.8z"/>
		</g>
		<path class="st19" d="M208.8,82.8c0,2-1.5,3.7-3.4,3.7h-81c-1.9,0-3.4-1.6-3.4-3.7V17.7c0-2,1.5-3.7,3.4-3.7h81
			c1.9,0,3.4,1.6,3.4,3.7V82.8z"/>
		<path class="st20" d="M205.4,14h-81c-1.9,0-3.4,1.6-3.4,3.7v14.2h87.8V17.7C208.8,15.6,207.3,14,205.4,14z"/>
		<ellipse class="st21" cx="193.2" cy="17.3" rx="1.7" ry="1.8"/>
		<ellipse class="st22" cx="198.7" cy="17.3" rx="1.7" ry="1.8"/>
		<ellipse class="st23" cx="204.5" cy="17.3" rx="1.7" ry="1.8"/>
		<path class="st24" d="M186.9,20.1c0,1.6-1.2,2.8-2.6,2.8H133c-1.4,0-2.6-1.3-2.6-2.8l0,0c0-1.6,1.2-2.8,2.6-2.8h51.3
			C185.7,17.3,186.9,18.5,186.9,20.1L186.9,20.1z"/>
		<rect x="125.4" y="35.2" class="st25" width="52.3" height="28.9"/>
		<rect x="125.4" y="69.5" class="st26" width="79.2" height="5.3"/>
		<rect x="125.3" y="77.2" class="st26" width="79.2" height="5.3"/>
	</g>
</g>
<g id="Layer_10">
	<g>
		<rect x="47.9" y="26.4" class="st27" width="91.1" height="4.4"/>
	</g>
	<g>
		<rect x="91.9" y="57.4" class="st27" width="59.1" height="4.4"/>
	</g>
	<g>
		<rect x="153.9" y="38.4" class="st27" width="83.1" height="4.4"/>
	</g>
	<g>
		<rect x="162" y="76.4" class="st27" width="138" height="4.4"/>
	</g>
	<circle class="st27" cx="236.6" cy="40.1" r="4.1"/>
	<circle class="st27" cx="301.6" cy="79.1" r="4.1"/>
	<circle class="st27" cx="153.6" cy="40.1" r="4.1"/>
	<circle class="st27" cx="162.6" cy="79.1" r="4.1"/>
	<circle class="st27" cx="151.6" cy="59.1" r="4.1"/>
	<circle class="st27" cx="138.6" cy="29.1" r="4.1"/>
	<circle class="st27" cx="91.6" cy="60.1" r="4.1"/>
	<circle class="st27" cx="46.6" cy="29.1" r="4.1"/>
</g>
</svg>
