<?xml version="1.0" encoding="utf-8"?>
<!-- Generator: Adobe Illustrator 21.0.0, SVG Export Plug-In . SVG Version: 6.00 Build 0)  -->
<svg version="1.1" xmlns="http://www.w3.org/2000/svg"  x="0px" y="0px"
	 viewBox="0 0 330 100" style="enable-background:new 0 0 330 100;" xml:space="preserve">
<style type="text/css">
	.st0{fill:#046E8E;}
	.st1{fill:#218BA3;}
	.st2{fill:#FFFFFF;}
	.st3{fill:#F1C40F;}
	.st4{fill:#F46464;}
	.st5{fill-rule:evenodd;clip-rule:evenodd;fill:#003333;}
	.st6{fill-rule:evenodd;clip-rule:evenodd;fill:#34495E;}
	.st7{opacity:0.5;fill-rule:evenodd;clip-rule:evenodd;}
	.st8{opacity:0.8;fill-rule:evenodd;clip-rule:evenodd;fill:#FFFFFF;}
	.st9{fill-rule:evenodd;clip-rule:evenodd;fill:#ECF0F1;}
	.st10{opacity:0.3;fill-rule:evenodd;clip-rule:evenodd;}
	.st11{opacity:0.3;}
	.st12{opacity:0.5;fill:#FFFFFF;}
	.st13{fill-rule:evenodd;clip-rule:evenodd;fill:#333333;}
	.st14{fill:#EFC762;}
	.st15{fill:#EFEFEF;}
	.st16{fill:#F6B98A;}
	.st17{fill:#EFB73A;}
	.st18{fill:#B76565;}
	.st19{fill:#5E3B28;}
	.st20{opacity:0.2;}
	.st21{fill:#D84848;}
	.st22{fill:#D3D3D3;}
	.st23{fill:#223666;}
	.st24{fill:#12B8C9;}
	.st25{opacity:0.1;}
	.st26{opacity:0.5;}
	.st27{fill:#FFB945;}
	.st28{fill:#CEFF06;}
	.st29{fill:#1DB0FF;}
	.st30{fill:#44BACA;}
	.st31{fill:#FDB940;}
	.st32{fill:#42536C;}
	.st33{fill:#F47F74;}
</style>
<g id="Layer_5">
	<rect id="Background_1_21_" class="st0" width="330" height="100"/>
</g>
<g id="Layer_6">
	<rect id="Background_1_1_" x="10" y="9" class="st1" width="307" height="82"/>
</g>
<g id="Layer_9">
	<g>
		<polyline class="st2" points="128.5,54 128,73 126,73 126.5,54 		"/>
	</g>
	<g>
		<polyline class="st2" points="164,55.7 127,56 127,54 164,53.7 		"/>
	</g>
	<g>
		<polygon class="st3" points="70.2,81.4 69.7,79.4 97.3,73.6 97.7,75.6 		"/>
		<polygon class="st3" points="78.8,52 80.3,50.6 100.3,71.4 98.9,72.9 		"/>
		<polygon class="st3" points="76.8,53.7 78.7,54.8 65.4,79.6 63.5,78.6 		"/>
		<ellipse transform="matrix(0.805 -0.5932 0.5932 0.805 -35.608 53.4744)" class="st4" cx="63.5" cy="80.9" rx="7.4" ry="7.6"/>
		<ellipse transform="matrix(0.8051 -0.5932 0.5932 0.8051 -15.1729 57.2854)" class="st4" cx="79.6" cy="51.7" rx="6.2" ry="6.3"/>
		<ellipse transform="matrix(0.805 -0.5933 0.5933 0.805 -23.3526 75.4302)" class="st4" cx="103.1" cy="73.2" rx="9.3" ry="9.6"/>
	</g>
	<g>
		<polygon class="st3" points="130.6,69.7 131,69.1 139.1,74.4 138.7,75 		"/>
		<g>
			<polygon class="st3" points="139.7,72.9 139.1,73 137.5,63.4 138.2,63.4 			"/>
			<polygon class="st3" points="130.1,69 129.7,68.4 136.9,62.3 137.3,62.9 			"/>
			<path class="st4" d="M138.1,72.9c1.2-0.7,2.7-0.4,3.5,0.8c0.8,1.2,0.4,2.8-0.7,3.5c-1.2,0.7-2.7,0.4-3.5-0.8
				C136.6,75.2,136.9,73.7,138.1,72.9z"/>
			<path class="st4" d="M128.9,66.9c1-0.6,2.3-0.3,2.9,0.7c0.6,1,0.4,2.3-0.6,2.9c-1,0.6-2.3,0.3-2.9-0.7
				C127.6,68.8,127.9,67.5,128.9,66.9z"/>
			<path class="st4" d="M135.8,58.7c1.5-0.9,3.4-0.4,4.4,1.1c1,1.5,0.5,3.5-0.9,4.4c-1.5,0.9-3.4,0.4-4.4-1.1
				C133.9,61.6,134.3,59.7,135.8,58.7z"/>
		</g>
	</g>
	<polygon class="st3" points="116.1,38 114.9,38.1 112.1,21.1 113.4,20.9 	"/>
	<polygon class="st3" points="98.9,30.9 98.1,30 111,19.1 111.8,20.1 	"/>
	<polygon class="st3" points="99.8,32.2 100.5,31.2 114.9,40.7 114.2,41.8 	"/>
	<path class="st4" d="M113.2,38c2.1-1.3,4.9-0.6,6.2,1.5c1.4,2.1,0.8,4.9-1.3,6.2c-2.1,1.3-4.9,0.6-6.2-1.5
		C110.5,42.1,111.1,39.3,113.2,38z"/>
	<path class="st4" d="M109,12.7c2.6-1.6,6.1-0.8,7.8,1.9c1.7,2.7,1,6.2-1.7,7.9c-2.6,1.6-6.1,0.8-7.8-1.9
		C105.6,17.9,106.4,14.3,109,12.7z"/>
	
		<ellipse transform="matrix(0.805 -0.5933 0.5933 0.805 -4.214278e-03 64.4697)" class="st4" cx="98.1" cy="32.2" rx="9.3" ry="9.6"/>
	<g>
		<polyline class="st2" points="128,73.7 63,73.7 63,71.7 128,71.7 		"/>
	</g>
	<g id="Point">
		<g>
			<polygon class="st3" points="195.7,75.1 195.3,73.3 220,68.1 220.4,70 			"/>
			<polygon class="st3" points="203.4,48.9 204.8,47.6 222.7,66.2 221.4,67.5 			"/>
			<polygon class="st3" points="201.7,50.4 203.3,51.3 191.4,73.5 189.7,72.6 			"/>
			<ellipse transform="matrix(0.805 -0.5932 0.5932 0.805 -7.3167 127.1393)" class="st4" cx="189.8" cy="74.7" rx="6.6" ry="6.8"/>
			
				<ellipse transform="matrix(0.8051 -0.5932 0.5932 0.8051 10.972 130.5422)" class="st4" cx="204.1" cy="48.6" rx="5.5" ry="5.7"/>
			<ellipse transform="matrix(0.805 -0.5933 0.5933 0.805 3.6569 146.7981)" class="st4" cx="225.2" cy="67.8" rx="8.4" ry="8.6"/>
		</g>
		<g>
			<polygon class="st3" points="249.8,64.7 250.2,64.1 257.4,68.9 257.1,69.4 			"/>
			<g>
				<polygon class="st3" points="258,67.5 257.4,67.6 256,59.1 256.6,59 				"/>
				<polygon class="st3" points="249.4,64 248.9,63.5 255.4,58.1 255.8,58.6 				"/>
				<path class="st4" d="M256.5,67.6c1-0.7,2.4-0.3,3.1,0.8c0.7,1.1,0.4,2.5-0.7,3.1c-1,0.7-2.4,0.3-3.1-0.8
					C255.2,69.6,255.5,68.2,256.5,67.6z"/>
				<path class="st4" d="M248.3,62.1c0.9-0.5,2-0.3,2.6,0.6c0.6,0.9,0.3,2.1-0.5,2.6c-0.9,0.5-2,0.3-2.6-0.6
					C247.1,63.9,247.4,62.7,248.3,62.1z"/>
				<path class="st4" d="M254.4,54.8c1.3-0.8,3.1-0.4,3.9,1c0.9,1.4,0.5,3.1-0.8,3.9c-1.3,0.8-3.1,0.4-3.9-1
					C252.7,57.4,253.1,55.7,254.4,54.8z"/>
			</g>
		</g>
		<g>
			<polygon class="st3" points="236.8,36.2 235.7,36.4 233.3,21.2 234.4,21 			"/>
			<polygon class="st3" points="221.4,30 220.7,29.1 232.2,19.4 232.9,20.3 			"/>
			<polygon class="st3" points="222.2,31.1 222.8,30.2 235.7,38.7 235.1,39.7 			"/>
			<path class="st4" d="M234.2,36.3c1.9-1.2,4.4-0.6,5.6,1.3c1.2,1.9,0.7,4.4-1.2,5.6c-1.9,1.2-4.4,0.6-5.6-1.3
				C231.8,40,232.3,37.5,234.2,36.3z"/>
			<path class="st4" d="M219.4,26.7c1.5-1,3.6-0.5,4.6,1.1c1,1.6,0.6,3.7-1,4.6c-1.5,1-3.6,0.5-4.6-1.1
				C217.4,29.7,217.9,27.6,219.4,26.7z"/>
			<path class="st4" d="M230.5,13.6c2.3-1.5,5.5-0.7,7,1.7c1.5,2.4,0.9,5.6-1.5,7c-2.4,1.5-5.5,0.7-7-1.7
				C227.4,18.3,228.1,15.1,230.5,13.6z"/>
		</g>
	</g>
	<g>
		<polyline class="st2" points="224,28 169,28.7 169,26.7 224,26 		"/>
	</g>
	<g>
		<polyline class="st2" points="224.5,26 225,40 223,40 222.5,26 		"/>
	</g>
	<g>
		<polyline class="st2" points="265,40.7 223,40.7 223,38.7 265,38.7 		"/>
	</g>
</g>
<g id="Layer_11">
	<rect x="144.2" y="40.8" class="st5" width="41.3" height="1.9"/>
	<path class="st6" d="M195.6,17.5h-62.1c-2.8,0-3.7,1.8-3.2,3.9c0,0,0-0.1,0-0.1c0,0.1,0,0.3,0,0.4l4.5,17c0.7,2.6,1.3,2.7,4.6,2.7
		l52,0c2.7,0,4,0,4.5-2.6l3.5-17c0-0.1,0-0.1,0-0.2c0,0,0,0,0,0l0.2-1.4C199.9,18.1,197.2,17.5,195.6,17.5z M130.3,21.1
		c0,0,0,0.1,0,0.1C130.3,21.2,130.3,21.1,130.3,21.1z M130.5,20.7C130.4,20.7,130.4,20.7,130.5,20.7
		C130.4,20.7,130.4,20.7,130.5,20.7z M130.4,20.9C130.4,20.9,130.4,21,130.4,20.9C130.4,21,130.4,20.9,130.4,20.9z M132.9,19.2
		c0.1,0,0.2,0,0.3,0C133.1,19.2,133,19.2,132.9,19.2z M131.2,19.9C131.2,19.9,131.2,19.9,131.2,19.9
		C131.2,19.9,131.2,19.9,131.2,19.9z M131.4,19.7C131.4,19.7,131.4,19.7,131.4,19.7C131.4,19.7,131.4,19.7,131.4,19.7z M131.6,19.6
		C131.6,19.6,131.7,19.6,131.6,19.6C131.7,19.6,131.6,19.6,131.6,19.6z M131.9,19.5C131.9,19.5,131.9,19.5,131.9,19.5
		C131.9,19.5,131.9,19.5,131.9,19.5z M132.1,19.4c0,0,0.1,0,0.1,0C132.2,19.4,132.1,19.4,132.1,19.4z M132.4,19.3c0,0,0.1,0,0.1,0
		C132.5,19.3,132.4,19.3,132.4,19.3z M132.6,19.3c0.1,0,0.1,0,0.2,0C132.7,19.3,132.7,19.3,132.6,19.3z"/>
	<path class="st7" d="M133.5,17.5h62.1c1.6,0,4.3,0.6,4.1,2.6l-0.2,1.4c-0.2-1.1-1.6-2.4-2.9-2.4h-63.4c-1.4,0-2.9,1-2.9,2.2
		C129.7,19.3,130.6,17.5,133.5,17.5L133.5,17.5z"/>
	<polygon class="st8" points="133.5,20.4 196.7,20.3 193.3,40.1 137.4,40.1 	"/>
	<path class="st9" d="M136.6,42h57.1c0.9,0,1.7,0.8,1.7,1.7v31.5c0,0.9-0.8,1.7-1.7,1.7h-57.1c-0.9,0-1.7-0.8-1.7-1.7V43.7
		C134.8,42.7,135.6,42,136.6,42L136.6,42z"/>
	<polyline class="st5" points="173.2,74.7 173.2,66.2 157,66.2 157,74.7 	"/>
	<polyline class="st10" points="192.3,64.7 137.8,64.7 137.8,44.9 192.3,44.9 192.3,64.7 	"/>
	<path class="st11" d="M171.7,70.5c0,2-0.3,3.6-0.8,3.6h-12c-0.4,0-0.8-1.6-0.8-3.6l0,0c0-2,0.3-3.6,0.8-3.6h12
		C171.3,66.9,171.7,68.5,171.7,70.5L171.7,70.5z"/>
	<g id="Light_1_">
		<polygon class="st12" points="172.1,20.3 158.7,20.3 144.8,40.1 154.1,40.1 		"/>
		<polygon class="st12" points="178.7,20.4 161.3,40.1 163.2,40.1 185.1,20.4 		"/>
	</g>
	<g id="Keyboard_4_">
		<path class="st13" d="M139,46.1h2.5c0.1,0,0.3,0.2,0.3,0.4v2.7c0,0.2-0.1,0.4-0.3,0.4H139c-0.1,0-0.3-0.2-0.3-0.4v-2.7
			C138.7,46.3,138.9,46.1,139,46.1L139,46.1z"/>
		<path class="st13" d="M143.1,46.1h2.5c0.1,0,0.3,0.2,0.3,0.4v2.7c0,0.2-0.1,0.4-0.3,0.4h-2.5c-0.1,0-0.3-0.2-0.3-0.4v-2.7
			C142.9,46.3,143,46.1,143.1,46.1L143.1,46.1z"/>
		<path class="st13" d="M147.2,46.1h2.5c0.1,0,0.3,0.2,0.3,0.4v2.7c0,0.2-0.1,0.4-0.3,0.4h-2.5c-0.1,0-0.3-0.2-0.3-0.4v-2.7
			C147,46.3,147.1,46.1,147.2,46.1L147.2,46.1z"/>
		<path class="st13" d="M151.3,46.1h2.5c0.2,0,0.3,0.2,0.3,0.4v2.7c0,0.2-0.1,0.4-0.3,0.4h-2.5c-0.1,0-0.3-0.2-0.3-0.4v-2.7
			C151.1,46.3,151.2,46.1,151.3,46.1L151.3,46.1z"/>
		<path class="st13" d="M155.4,46.1h2.5c0.1,0,0.3,0.2,0.3,0.4v2.7c0,0.2-0.1,0.4-0.3,0.4h-2.5c-0.1,0-0.3-0.2-0.3-0.4v-2.7
			C155.2,46.3,155.3,46.1,155.4,46.1L155.4,46.1z"/>
		<path class="st13" d="M159.6,46.1h2.5c0.1,0,0.3,0.2,0.3,0.4v2.7c0,0.2-0.1,0.4-0.3,0.4h-2.5c-0.1,0-0.3-0.2-0.3-0.4v-2.7
			C159.3,46.3,159.4,46.1,159.6,46.1L159.6,46.1z"/>
		<path class="st13" d="M163.7,46.1h2.5c0.2,0,0.3,0.2,0.3,0.4v2.7c0,0.2-0.1,0.4-0.3,0.4h-2.5c-0.1,0-0.3-0.2-0.3-0.4v-2.7
			C163.4,46.3,163.5,46.1,163.7,46.1L163.7,46.1z"/>
		<path class="st13" d="M167.8,46.1h2.5c0.1,0,0.3,0.2,0.3,0.4v2.7c0,0.2-0.1,0.4-0.3,0.4h-2.5c-0.1,0-0.3-0.2-0.3-0.4v-2.7
			C167.5,46.3,167.6,46.1,167.8,46.1L167.8,46.1z"/>
		<path class="st13" d="M171.9,46.1h2.5c0.1,0,0.3,0.2,0.3,0.4v2.7c0,0.2-0.1,0.4-0.3,0.4h-2.5c-0.2,0-0.3-0.2-0.3-0.4v-2.7
			C171.6,46.3,171.7,46.1,171.9,46.1L171.9,46.1z"/>
		<path class="st13" d="M176,46.1h2.5c0.2,0,0.3,0.2,0.3,0.4v2.7c0,0.2-0.1,0.4-0.3,0.4H176c-0.2,0-0.3-0.2-0.3-0.4v-2.7
			C175.7,46.3,175.8,46.1,176,46.1L176,46.1z"/>
		<path class="st13" d="M180.1,46.1h2.5c0.1,0,0.3,0.2,0.3,0.4v2.7c0,0.2-0.1,0.4-0.3,0.4h-2.5c-0.1,0-0.3-0.2-0.3-0.4v-2.7
			C179.8,46.3,179.9,46.1,180.1,46.1L180.1,46.1z"/>
		<path class="st13" d="M145.2,50.8h2.5c0.1,0,0.3,0.2,0.3,0.4v2.7c0,0.2-0.1,0.4-0.3,0.4h-2.5c-0.1,0-0.3-0.2-0.3-0.4v-2.7
			C144.9,51,145,50.8,145.2,50.8L145.2,50.8z"/>
		<path class="st13" d="M149.3,50.8h2.5c0.1,0,0.3,0.2,0.3,0.4v2.7c0,0.2-0.1,0.4-0.3,0.4h-2.5c-0.1,0-0.3-0.2-0.3-0.4v-2.7
			C149,51,149.1,50.8,149.3,50.8L149.3,50.8z"/>
		<path class="st13" d="M153.4,50.8h2.5c0.1,0,0.3,0.2,0.3,0.4v2.7c0,0.2-0.1,0.4-0.3,0.4h-2.5c-0.1,0-0.3-0.2-0.3-0.4v-2.7
			C153.1,51,153.2,50.8,153.4,50.8L153.4,50.8z"/>
		<path class="st13" d="M157.5,50.8h2.5c0.1,0,0.3,0.2,0.3,0.4v2.7c0,0.2-0.1,0.4-0.3,0.4h-2.5c-0.1,0-0.3-0.2-0.3-0.4v-2.7
			C157.2,51,157.4,50.8,157.5,50.8L157.5,50.8z"/>
		<path class="st13" d="M161.6,50.8h2.5c0.1,0,0.3,0.2,0.3,0.4v2.7c0,0.2-0.1,0.4-0.3,0.4h-2.5c-0.1,0-0.3-0.2-0.3-0.4v-2.7
			C161.3,51,161.5,50.8,161.6,50.8L161.6,50.8z"/>
		<path class="st13" d="M165.7,50.8h2.5c0.2,0,0.3,0.2,0.3,0.4v2.7c0,0.2-0.1,0.4-0.3,0.4h-2.5c-0.1,0-0.3-0.2-0.3-0.4v-2.7
			C165.4,51,165.6,50.8,165.7,50.8L165.7,50.8z"/>
		<path class="st13" d="M169.8,50.8h2.5c0.1,0,0.3,0.2,0.3,0.4v2.7c0,0.2-0.1,0.4-0.3,0.4h-2.5c-0.2,0-0.3-0.2-0.3-0.4v-2.7
			C169.5,51,169.7,50.8,169.8,50.8L169.8,50.8z"/>
		<path class="st13" d="M173.9,50.8h2.5c0.1,0,0.3,0.2,0.3,0.4v2.7c0,0.2-0.1,0.4-0.3,0.4h-2.5c-0.1,0-0.3-0.2-0.3-0.4v-2.7
			C173.6,51,173.8,50.8,173.9,50.8L173.9,50.8z"/>
		<path class="st13" d="M178,50.8h2.5c0.1,0,0.3,0.2,0.3,0.4v2.7c0,0.2-0.1,0.4-0.3,0.4H178c-0.1,0-0.3-0.2-0.3-0.4v-2.7
			C177.8,51,177.9,50.8,178,50.8L178,50.8z"/>
		<path class="st13" d="M182.1,50.8h2.5c0.1,0,0.3,0.2,0.3,0.4v2.7c0,0.2-0.1,0.4-0.3,0.4h-2.5c-0.1,0-0.3-0.2-0.3-0.4v-2.7
			C181.9,51,182,50.8,182.1,50.8L182.1,50.8z"/>
		<path class="st13" d="M184.2,46.1h2.5c0.1,0,0.3,0.2,0.3,0.4v2.7c0,0.2-0.1,0.4-0.3,0.4h-2.5c-0.2,0-0.3-0.2-0.3-0.4v-2.7
			C183.9,46.3,184,46.1,184.2,46.1L184.2,46.1z"/>
		<path class="st13" d="M188.3,46.1h2.5c0.1,0,0.3,0.2,0.3,0.4v2.7c0,0.2-0.1,0.4-0.3,0.4h-2.5c-0.2,0-0.3-0.2-0.3-0.4v-2.7
			C188,46.3,188.1,46.1,188.3,46.1L188.3,46.1z"/>
		<path class="st13" d="M186.3,50.8h4.5c0.1,0,0.3,0.2,0.3,0.4v2.7c0,0.2-0.1,0.4-0.3,0.4h-4.5c-0.2,0-0.3-0.2-0.3-0.4v-2.7
			C186,51,186.2,50.8,186.3,50.8L186.3,50.8z"/>
		<path class="st13" d="M139.1,50.8h4.7c0.1,0,0.3,0.2,0.3,0.4v2.7c0,0.2-0.1,0.4-0.3,0.4h-4.7c-0.2,0-0.3-0.2-0.3-0.4v-2.7
			C138.8,51,138.9,50.8,139.1,50.8L139.1,50.8z"/>
		<path class="st13" d="M139.1,55.6h5.6c0.1,0,0.3,0.2,0.3,0.4v2.7c0,0.2-0.1,0.4-0.3,0.4h-5.6c-0.2,0-0.3-0.2-0.3-0.4V56
			C138.8,55.8,138.9,55.6,139.1,55.6L139.1,55.6z"/>
		<path class="st13" d="M139.1,60.4h2.5c0.1,0,0.3,0.2,0.3,0.4v2.7c0,0.2-0.1,0.4-0.3,0.4h-2.5c-0.2,0-0.3-0.2-0.3-0.4v-2.7
			C138.8,60.5,138.9,60.4,139.1,60.4L139.1,60.4z"/>
		<path class="st13" d="M143.2,60.4h2.5c0.1,0,0.3,0.2,0.3,0.4v2.7c0,0.2-0.1,0.4-0.3,0.4h-2.5c-0.1,0-0.3-0.2-0.3-0.4v-2.7
			C142.9,60.5,143,60.4,143.2,60.4L143.2,60.4z"/>
		<path class="st13" d="M147.3,60.4h2.5c0.2,0,0.3,0.2,0.3,0.4v2.7c0,0.2-0.1,0.4-0.3,0.4h-2.5c-0.1,0-0.3-0.2-0.3-0.4v-2.7
			C147,60.5,147.1,60.4,147.3,60.4L147.3,60.4z"/>
		<path class="st13" d="M151.4,60.4h26.2c0.2,0,0.3,0.2,0.3,0.4v2.7c0,0.2-0.1,0.4-0.3,0.4h-26.2c-0.1,0-0.3-0.2-0.3-0.4v-2.7
			C151.1,60.5,151.2,60.4,151.4,60.4L151.4,60.4z"/>
		<path class="st13" d="M146.2,55.7h2.5c0.2,0,0.3,0.2,0.3,0.4v2.7c0,0.2-0.1,0.4-0.3,0.4h-2.5c-0.1,0-0.3-0.2-0.3-0.4V56
			C145.9,55.8,146,55.7,146.2,55.7L146.2,55.7z"/>
		<path class="st13" d="M150.3,55.7h2.5c0.1,0,0.3,0.2,0.3,0.4v2.7c0,0.2-0.1,0.4-0.3,0.4h-2.5c-0.1,0-0.3-0.2-0.3-0.4V56
			C150,55.8,150.1,55.7,150.3,55.7L150.3,55.7z"/>
		<path class="st13" d="M154.4,55.7h2.5c0.1,0,0.3,0.2,0.3,0.4v2.7c0,0.2-0.1,0.4-0.3,0.4h-2.5c-0.1,0-0.3-0.2-0.3-0.4V56
			C154.1,55.8,154.2,55.7,154.4,55.7L154.4,55.7z"/>
		<path class="st13" d="M158.5,55.7h2.5c0.1,0,0.3,0.2,0.3,0.4v2.7c0,0.2-0.1,0.4-0.3,0.4h-2.5c-0.1,0-0.3-0.2-0.3-0.4V56
			C158.2,55.8,158.3,55.7,158.5,55.7L158.5,55.7z"/>
		<path class="st13" d="M162.6,55.7h2.5c0.1,0,0.3,0.2,0.3,0.4v2.7c0,0.2-0.1,0.4-0.3,0.4h-2.5c-0.1,0-0.3-0.2-0.3-0.4V56
			C162.3,55.8,162.4,55.7,162.6,55.7L162.6,55.7z"/>
		<path class="st13" d="M166.7,55.7h2.5c0.1,0,0.3,0.2,0.3,0.4v2.7c0,0.2-0.1,0.4-0.3,0.4h-2.5c-0.1,0-0.3-0.2-0.3-0.4V56
			C166.4,55.8,166.5,55.7,166.7,55.7L166.7,55.7z"/>
		<path class="st13" d="M170.8,55.7h2.5c0.1,0,0.3,0.2,0.3,0.4v2.7c0,0.2-0.1,0.4-0.3,0.4h-2.5c-0.2,0-0.3-0.2-0.3-0.4V56
			C170.5,55.8,170.6,55.7,170.8,55.7L170.8,55.7z"/>
		<path class="st13" d="M174.9,55.7h2.5c0.2,0,0.3,0.2,0.3,0.4v2.7c0,0.2-0.1,0.4-0.3,0.4h-2.5c-0.1,0-0.3-0.2-0.3-0.4V56
			C174.6,55.8,174.8,55.7,174.9,55.7L174.9,55.7z"/>
		<path class="st13" d="M179,55.7h4.7c0.1,0,0.3,0.2,0.3,0.4v2.7c0,0.2-0.1,0.4-0.3,0.4H179c-0.2,0-0.3-0.2-0.3-0.4V56
			C178.7,55.8,178.9,55.7,179,55.7L179,55.7z"/>
		<path class="st13" d="M185.2,55.6h5.6c0.1,0,0.3,0.2,0.3,0.4v2.7c0,0.2-0.1,0.4-0.3,0.4h-5.6c-0.1,0-0.3-0.2-0.3-0.4V56
			C184.9,55.8,185,55.6,185.2,55.6L185.2,55.6z"/>
		<path class="st13" d="M185.7,60.4h2.1c0.1,0,0.1,0.1,0.1,0.1v0.9c0,0.1,0,0.1-0.1,0.1h-2.1c-0.1,0-0.1-0.1-0.1-0.1v-0.9
			C185.6,60.4,185.6,60.4,185.7,60.4L185.7,60.4z"/>
		<path class="st13" d="M185.7,62.4h2.1c0.1,0,0.1,0.1,0.1,0.1v0.9c0,0.1,0,0.1-0.1,0.1h-2.1c-0.1,0-0.1-0.1-0.1-0.1v-0.9
			C185.6,62.5,185.6,62.4,185.7,62.4L185.7,62.4z"/>
		<path class="st13" d="M182.6,62.4h2.1c0.1,0,0.1,0.1,0.1,0.1v0.9c0,0.1,0,0.1-0.1,0.1h-2.1c-0.1,0-0.1-0.1-0.1-0.1v-0.9
			C182.5,62.5,182.5,62.4,182.6,62.4L182.6,62.4z"/>
		<path class="st13" d="M188.8,62.4h2.1c0.1,0,0.1,0.1,0.1,0.1v0.9c0,0.1,0,0.1-0.1,0.1h-2.1c-0.1,0-0.1-0.1-0.1-0.1v-0.9
			C188.7,62.5,188.8,62.4,188.8,62.4L188.8,62.4z"/>
		<path class="st13" d="M178.9,60.4h2.5c0.2,0,0.3,0.2,0.3,0.4v2.7c0,0.2-0.1,0.4-0.3,0.4h-2.5c-0.1,0-0.3-0.2-0.3-0.4v-2.7
			C178.6,60.5,178.8,60.4,178.9,60.4L178.9,60.4z"/>
	</g>
	<path class="st14" d="M161.7,72.5l0,0.8c0,0-0.7,0.5-0.8,0.5l0-0.3V73v-9.8c0-0.6-0.5-1-1-1h-0.1c-0.6,0-1,0.5-1,1v5.3
		c-0.2,0.1-0.5,0.1-0.7,0v-8.1c0-0.6-0.5-1-1-1h-0.1c-0.6,0-1,0.5-1,1v8.2c-0.2,0.1-0.4,0.1-0.6,0v-6c0-0.6-0.5-1-1-1h-0.1
		c-0.6,0-1,0.5-1,1v6.2c-0.2,0.1-0.5,0.1-0.6,0v-3.3c0-0.6-0.5-1-1-1h-0.1c-0.6,0-1,0.5-1,1v7v3.2v1.4l1.1,1.7l0,8
		c2.4,1,4.9,1.8,7.6,2.2l0.1-9.9l1.7-1.9v-1c0.7-0.3,1.5-1.1,2.3-2l-0.1-3C162.4,70.8,161.7,71.7,161.7,72.5z"/>
	<path class="st14" d="M178.6,69.7L178.6,69.7c-0.6,0-1.1,0.5-1.1,1V74c-0.2,0.1-0.4,0.1-0.6,0v-6.2c0-0.6-0.5-1-1-1h-0.1
		c-0.6,0-1,0.5-1,1v6c-0.2,0.1-0.4,0.1-0.6,0v-8.2c0-0.6-0.5-1-1-1H173c-0.6,0-1,0.5-1,1v8.1c-0.2,0.2-0.4,0.2-0.7,0v-5.3
		c0-0.6-0.5-1-1-1h-0.1c-0.6,0-1,0.5-1,1v9.8v0.4l0,0.3c-0.1,0-0.8-0.5-0.8-0.5l0-0.8c0-0.8-0.7-1.7-1.4-1.3l-0.1,3
		c0.7,0.9,1.5,1.6,2.3,2v1l1.7,1.9l0,4.5c2.7-0.5,5.2-1.4,7.6-2.6l0-2.2l1.1-1.7v-1.4v-3.2v-7C179.6,70.1,179.2,69.7,178.6,69.7z"/>
	<path class="st15" d="M152.3,66c0,0.4-0.3,0.7-0.7,0.7l0,0c-0.4,0-0.7-0.3-0.7-0.7v-0.5c0-0.4,0.3-0.7,0.7-0.7l0,0
		c0.4,0,0.7,0.3,0.7,0.7V66z"/>
	<path class="st15" d="M155,63.1c0,0.4-0.3,0.7-0.7,0.7l0,0c-0.4,0-0.7-0.3-0.7-0.7v-0.5c0-0.4,0.3-0.7,0.7-0.7l0,0
		c0.4,0,0.7,0.3,0.7,0.7V63.1z"/>
	<path class="st15" d="M157.8,61c0,0.4-0.3,0.7-0.7,0.7l0,0c-0.4,0-0.7-0.3-0.7-0.7v-0.5c0-0.4,0.3-0.7,0.7-0.7l0,0
		c0.4,0,0.7,0.3,0.7,0.7V61z"/>
	<path class="st15" d="M160.6,63.9c0,0.4-0.3,0.7-0.7,0.7l0,0c-0.4,0-0.7-0.3-0.7-0.7v-0.5c0-0.4,0.3-0.7,0.7-0.7l0,0
		c0.4,0,0.7,0.3,0.7,0.7V63.9z"/>
	<path class="st15" d="M162.6,71.8v0.5c0,0.4,0.3,0.7,0.6,0.7l-0.1-1.8c0,0-0.1,0-0.1,0C162.8,71.2,162.6,71.5,162.6,71.8z"/>
	<path class="st15" d="M170.9,69.1c0,0.4-0.3,0.7-0.7,0.7l0,0c-0.4,0-0.7-0.3-0.7-0.7v-0.5c0-0.4,0.3-0.7,0.7-0.7l0,0
		c0.4,0,0.7,0.3,0.7,0.7V69.1z"/>
	<path class="st15" d="M173.8,66.2c0,0.4-0.3,0.7-0.7,0.7l0,0c-0.4,0-0.7-0.3-0.7-0.7v-0.5c0-0.4,0.3-0.7,0.7-0.7l0,0
		c0.4,0,0.7,0.3,0.7,0.7V66.2z"/>
	<path class="st15" d="M176.5,68.4c0,0.4-0.3,0.7-0.7,0.7l0,0c-0.4,0-0.7-0.3-0.7-0.7v-0.5c0-0.4,0.3-0.7,0.7-0.7l0,0
		c0.4,0,0.7,0.3,0.7,0.7V68.4z"/>
	<path class="st15" d="M179.3,71.4c0,0.4-0.3,0.7-0.7,0.7l0,0c-0.4,0-0.7-0.3-0.7-0.7v-0.5c0-0.4,0.3-0.7,0.7-0.7l0,0
		c0.4,0,0.7,0.3,0.7,0.7V71.4z"/>
</g>
<g id="Layer_7">
	<g id="Man_1_">
		<polygon class="st16" points="253.4,50.5 254,44.8 268.1,41.9 267.9,46.4 268.5,50.1 266.4,52 261.9,53.7 255.6,52.2 		"/>
		<path class="st17" d="M251.5,50.1l2.2-2.3c0,0,2.2,5.4,7.5,5.1c5.4-0.3,6.9-4.8,6.9-4.8l2.8,2.1l0.2,5.2c0,0-10.8,2.8-12.5,2.4
			c-1.7-0.4-7.7-3.2-7.7-3.2L251.5,50.1z"/>
		<path class="st18" d="M270.9,50.1c-1.9,5.1-9.7,5.6-9.7,5.6s-7.8-0.5-9.7-5.6c0,0-18,4.4-19.5,21.7c0,0,7.3,14.4,29.2,15.8
			c21.9-1.5,29.2-15.8,29.2-15.8C289,54.5,270.9,50.1,270.9,50.1z"/>
		<path class="st19" d="M274.5,19.5c-1.6-5.7-13.3-7.5-13.3-7.5s-11.7,1.8-13.3,7.5c-1.6,5.7-0.4,12.3,1.3,17.4
			c1.7,5.1,5.1,11.4,11.9,13.9c6.8-2.4,10.2-8.8,11.9-13.9C274.8,31.8,276.1,25.3,274.5,19.5z"/>
		<path class="st20" d="M263.2,12.4c3.3,4.9,10,18.3-0.5,37.8c5.8-2.8,8.8-8.5,10.4-13.2c1.7-5.1,2.9-11.7,1.3-17.4
			C273.3,15.3,266.6,13.2,263.2,12.4z"/>
		<path class="st20" d="M290.4,71.8c-1.2-14.1-13.3-19.6-17.8-21.2c4.4,5.6,13.2,18.6,11,28.9C288.5,75.6,290.4,71.8,290.4,71.8z"/>
	</g>
</g>
<g id="Layer_10">
	<g>
		
			<rect x="164.9" y="19" transform="matrix(0.7517 -0.6595 0.6595 0.7517 21.5531 117.0096)" class="st21" width="2.5" height="21.7"/>
	</g>
	<g>
		
			<rect x="155.4" y="28.5" transform="matrix(0.6595 -0.7517 0.7517 0.6595 34.1127 135.1438)" class="st21" width="21.7" height="2.8"/>
	</g>
</g>
<g id="Layer_12">
	<path class="st2" d="M245.6,72.3h0.8v5.6h-0.8V72.3z"/>
	<path class="st2" d="M251.2,75.1h0.8v2.6c-0.1,0-0.2,0-0.3,0.1c-0.1,0-0.3,0.1-0.4,0.1c-0.2,0-0.3,0-0.5,0.1c-0.2,0-0.4,0-0.6,0
		c-0.4,0-0.8-0.1-1.1-0.2c-0.3-0.1-0.6-0.3-0.8-0.6c-0.2-0.2-0.4-0.6-0.5-0.9c-0.1-0.4-0.2-0.8-0.2-1.2c0-0.5,0.1-0.9,0.2-1.2
		c0.1-0.4,0.3-0.7,0.6-0.9c0.2-0.2,0.5-0.4,0.9-0.6c0.3-0.1,0.7-0.2,1-0.2c0.3,0,0.5,0,0.7,0c0.2,0,0.4,0.1,0.5,0.1
		c0.1,0,0.3,0.1,0.3,0.1c0.1,0,0.1,0.1,0.2,0.1l-0.3,0.7c-0.2-0.1-0.4-0.2-0.6-0.3c-0.3-0.1-0.5-0.1-0.8-0.1c-0.3,0-0.5,0.1-0.8,0.2
		c-0.2,0.1-0.4,0.3-0.6,0.4c-0.2,0.2-0.3,0.4-0.4,0.7c-0.1,0.3-0.1,0.6-0.1,0.9c0,0.3,0,0.6,0.1,0.9c0.1,0.3,0.2,0.5,0.4,0.7
		c0.2,0.2,0.4,0.3,0.6,0.5c0.2,0.1,0.5,0.2,0.8,0.2c0.2,0,0.4,0,0.6,0c0.2,0,0.3,0,0.3-0.1V75.1z"/>
	<path class="st2" d="M257.1,77.9c-0.1-0.2-0.3-0.4-0.4-0.7c-0.2-0.2-0.3-0.5-0.5-0.8c-0.2-0.3-0.4-0.5-0.6-0.8
		c-0.2-0.3-0.4-0.5-0.6-0.8c-0.2-0.3-0.4-0.5-0.5-0.7c-0.2-0.2-0.3-0.4-0.5-0.6v4.4h-0.8v-5.6h0.6c0.3,0.3,0.5,0.6,0.8,0.9
		c0.3,0.4,0.6,0.7,0.9,1.1c0.3,0.4,0.6,0.8,0.8,1.1c0.3,0.4,0.5,0.7,0.6,1v-4.1h0.8v5.6H257.1z"/>
	<path class="st2" d="M268.1,75.1c0-0.5,0.1-0.9,0.2-1.3c0.1-0.4,0.3-0.7,0.6-0.9c0.2-0.2,0.5-0.4,0.9-0.6c0.3-0.1,0.7-0.2,1-0.2
		c0.4,0,0.7,0.1,1,0.2c0.3,0.1,0.6,0.3,0.8,0.6c0.2,0.2,0.4,0.6,0.6,0.9c0.1,0.4,0.2,0.8,0.2,1.3c0,0.5-0.1,0.9-0.2,1.3
		c-0.1,0.4-0.3,0.7-0.6,0.9c-0.2,0.2-0.5,0.4-0.8,0.6c-0.3,0.1-0.7,0.2-1,0.2c-0.4,0-0.7-0.1-1-0.2c-0.3-0.1-0.6-0.3-0.9-0.6
		c-0.2-0.2-0.4-0.6-0.6-0.9C268.2,76,268.1,75.6,268.1,75.1z M269,75.1c0,0.3,0,0.6,0.1,0.9c0.1,0.3,0.2,0.5,0.4,0.7
		c0.2,0.2,0.4,0.3,0.6,0.4c0.2,0.1,0.5,0.2,0.8,0.2c0.3,0,0.5-0.1,0.8-0.2c0.2-0.1,0.4-0.3,0.6-0.4c0.2-0.2,0.3-0.4,0.4-0.7
		c0.1-0.3,0.1-0.6,0.1-0.9c0-0.3,0-0.6-0.1-0.9c-0.1-0.3-0.2-0.5-0.4-0.7c-0.2-0.2-0.4-0.3-0.6-0.4c-0.2-0.1-0.5-0.2-0.8-0.2
		c-0.3,0-0.5,0.1-0.8,0.2c-0.2,0.1-0.4,0.3-0.6,0.4c-0.2,0.2-0.3,0.4-0.4,0.7C269,74.4,269,74.7,269,75.1z"/>
	<path class="st2" d="M277.4,75.5c0.1,0.1,0.2,0.2,0.3,0.4c0.1,0.2,0.3,0.4,0.4,0.6c0.1,0.2,0.3,0.4,0.4,0.7
		c0.1,0.2,0.3,0.5,0.4,0.7H278c-0.1-0.2-0.2-0.4-0.4-0.6c-0.1-0.2-0.3-0.4-0.4-0.6c-0.1-0.2-0.3-0.4-0.4-0.5
		c-0.1-0.2-0.2-0.3-0.3-0.4c-0.1,0-0.1,0-0.2,0c-0.1,0-0.1,0-0.2,0h-0.7v2.2h-0.8v-5.5c0.2-0.1,0.5-0.1,0.7-0.1c0.3,0,0.5,0,0.7,0
		c0.8,0,1.4,0.1,1.8,0.4c0.4,0.3,0.6,0.7,0.6,1.3c0,0.4-0.1,0.7-0.3,1C278.1,75.2,277.8,75.4,277.4,75.5z M276.2,72.9
		c-0.3,0-0.6,0-0.8,0V75h0.6c0.3,0,0.5,0,0.7,0c0.2,0,0.4-0.1,0.5-0.2c0.1-0.1,0.3-0.2,0.3-0.3c0.1-0.1,0.1-0.3,0.1-0.5
		c0-0.2,0-0.4-0.1-0.5c-0.1-0.1-0.2-0.3-0.3-0.3c-0.1-0.1-0.3-0.1-0.5-0.2C276.6,72.9,276.4,72.9,276.2,72.9z"/>
	<path class="st2" d="M263.2,77.9c-0.1-0.2-0.2-0.5-0.3-0.7c-0.1-0.2-0.2-0.5-0.3-0.7h-2.5l-0.5,1.4h-0.8c0.2-0.6,0.4-1.1,0.6-1.6
		c0.2-0.5,0.4-1,0.6-1.4c0.2-0.5,0.4-0.9,0.5-1.3c0.2-0.4,0.4-0.8,0.6-1.2h0.7c0.2,0.4,0.4,0.8,0.6,1.2c0.2,0.4,0.4,0.8,0.5,1.3
		c0.2,0.5,0.4,0.9,0.6,1.4c0.2,0.5,0.4,1.1,0.6,1.6H263.2z M262.4,75.8c-0.2-0.5-0.3-0.9-0.5-1.4c-0.2-0.4-0.3-0.9-0.5-1.3
		c-0.2,0.4-0.4,0.8-0.5,1.3c-0.2,0.4-0.3,0.9-0.5,1.4H262.4z"/>
	<path class="st2" d="M280.8,77.9v-2.2c-0.4-0.6-0.7-1.1-1.1-1.7c-0.3-0.6-0.6-1.1-0.9-1.7h0.9c0.2,0.4,0.4,0.9,0.7,1.3
		c0.3,0.5,0.5,0.9,0.8,1.3c0.3-0.4,0.5-0.9,0.8-1.3c0.3-0.5,0.5-0.9,0.7-1.3h0.9c-0.3,0.5-0.6,1.1-0.9,1.6c-0.3,0.6-0.7,1.1-1,1.7
		v2.3H280.8z"/>
	<path class="st2" d="M242.7,77.2c0.8,0,1.2-0.3,1.2-0.8c0-0.2,0-0.3-0.1-0.4c-0.1-0.1-0.2-0.2-0.3-0.3c-0.1-0.1-0.2-0.2-0.4-0.2
		c-0.1-0.1-0.3-0.1-0.5-0.2c-0.2-0.1-0.4-0.1-0.5-0.2c-0.2-0.1-0.3-0.2-0.4-0.3c-0.1-0.1-0.2-0.2-0.3-0.4c-0.1-0.2-0.1-0.3-0.1-0.6
		c0-0.5,0.2-0.8,0.5-1.1c0.3-0.3,0.7-0.4,1.3-0.4c0.3,0,0.6,0,0.9,0.1c0.3,0.1,0.5,0.1,0.6,0.2l-0.2,0.6c-0.1-0.1-0.3-0.1-0.5-0.2
		c-0.2-0.1-0.5-0.1-0.7-0.1c-0.1,0-0.3,0-0.4,0c-0.1,0-0.2,0.1-0.3,0.1c-0.1,0.1-0.2,0.1-0.2,0.2c-0.1,0.1-0.1,0.2-0.1,0.3
		c0,0.1,0,0.3,0.1,0.4c0.1,0.1,0.1,0.2,0.2,0.3c0.1,0.1,0.2,0.1,0.4,0.2c0.1,0.1,0.3,0.1,0.4,0.2c0.2,0.1,0.4,0.2,0.6,0.3
		c0.2,0.1,0.4,0.2,0.5,0.3c0.1,0.1,0.2,0.3,0.3,0.5c0.1,0.2,0.1,0.4,0.1,0.6c0,0.5-0.2,0.8-0.5,1.1c-0.3,0.2-0.8,0.4-1.4,0.4
		c-0.2,0-0.4,0-0.6,0c-0.2,0-0.3-0.1-0.5-0.1c-0.1,0-0.3-0.1-0.4-0.1c-0.1,0-0.2-0.1-0.2-0.1l0.2-0.6c0.1,0.1,0.3,0.1,0.5,0.2
		C242.1,77.1,242.4,77.2,242.7,77.2z"/>
	<path class="st2" d="M267.9,72.4V73h-1.7v4.8h-0.8V73h-1.7v-0.7H267.9z"/>
	<g>
		<path class="st22" d="M47.6,27.8c0-0.3,0-0.6,0-0.9c0-5.2-4.2-9.4-9.4-9.4s-9.4,4.2-9.4,9.4c0,0.3,0,0.6,0,0.9h0V85h49.2V27.8
			H47.6z"/>
		<path class="st23" d="M89.8,26.9c0-5.2-4.2-9.2-9.4-9.2H38.3c5.2,0,9.4,4.2,9.4,9.4c0,0.3,0,0.6,0,0.9h32.8h9.4
			C89.9,27.5,89.8,27.3,89.8,26.9z"/>
		<rect x="29" y="32.7" class="st24" width="49.2" height="15"/>
		<rect x="30.7" y="32.7" class="st25" width="45.8" height="15"/>
		<g class="st26">
			<path class="st2" d="M31.1,39.4l1.5-1.5v0.4l-1.3,1.2v0l1.3,1.2v0.4l-1.5-1.5V39.4z"/>
		</g>
		<g class="st26">
			<path class="st2" d="M76,39.7l-1.5,1.5v-0.4l1.3-1.2v0l-1.3-1.2v-0.4l1.5,1.5V39.7z"/>
		</g>
		<rect x="32.6" y="51.8" class="st27" width="10.6" height="8.3"/>
		<rect x="48.2" y="51.8" class="st28" width="10.6" height="8.3"/>
		<rect x="63.9" y="51.8" class="st29" width="10.6" height="8.3"/>
		<rect x="32.6" y="62.6" class="st0" width="41.9" height="0.7"/>
		<rect x="32.6" y="64.2" class="st0" width="41.9" height="0.7"/>
		<rect x="32.7" y="65.8" class="st0" width="41.9" height="0.7"/>
		<rect x="32.8" y="67.4" class="st0" width="41.9" height="0.7"/>
		<g id="Data">
			<path class="st30" d="M49.8,44.4l-0.8-1c-0.7,0.6-1.6,0.9-2.5,0.9c-0.5,0-0.9-0.1-1.3-0.2l-0.4,1.3c0.5,0.2,1.1,0.3,1.7,0.3
				C47.7,45.5,48.8,45.1,49.8,44.4z"/>
			<path class="st31" d="M49,43.3l0.8,1c1.2-1,1.9-2.4,1.9-4.1c0-0.7-0.1-1.4-0.4-2L50,38.7c0.2,0.5,0.4,1.1,0.4,1.6
				C50.4,41.5,49.8,42.6,49,43.3z"/>
			<path class="st32" d="M44.7,36.8l-0.5-1.2c-1.7,0.8-3,2.6-3,4.7c0,2.3,1.5,4.3,3.5,5l0.4-1.3c-1.5-0.5-2.6-2-2.6-3.7
				C42.5,38.8,43.4,37.4,44.7,36.8z"/>
			<path class="st33" d="M46.4,36.4c1.6,0,3,0.9,3.6,2.3l1.3-0.3c-0.8-1.9-2.7-3.3-4.9-3.3c-0.8,0-1.6,0.2-2.3,0.5l0.5,1.2
				C45.2,36.5,45.8,36.4,46.4,36.4z"/>
		</g>
		<g id="Data_1_">
			<path class="st30" d="M60.9,43.9l-0.5-0.7c-0.4,0.4-1,0.6-1.7,0.6c-0.3,0-0.6-0.1-0.9-0.2l-0.2,0.8c0.4,0.1,0.7,0.2,1.1,0.2
				C59.6,44.7,60.3,44.4,60.9,43.9z"/>
			<path class="st31" d="M60.4,43.2l0.5,0.7c0.8-0.6,1.3-1.6,1.3-2.7c0-0.5-0.1-0.9-0.2-1.3l-0.8,0.2c0.1,0.3,0.2,0.7,0.2,1.1
				C61.3,42,61,42.7,60.4,43.2z"/>
			<path class="st32" d="M57.6,38.9l-0.3-0.8c-1.2,0.6-1.9,1.7-1.9,3.1c0,1.5,1,2.8,2.3,3.3l0.2-0.8c-1-0.4-1.7-1.3-1.7-2.4
				C56.1,40.2,56.7,39.3,57.6,38.9z"/>
			<path class="st33" d="M58.7,38.6c1,0,1.9,0.6,2.4,1.5l0.8-0.2c-0.5-1.3-1.7-2.2-3.2-2.2c-0.5,0-1,0.1-1.5,0.3l0.3,0.8
				C57.9,38.7,58.3,38.6,58.7,38.6z"/>
		</g>
		<g id="Data_2_">
			<path class="st30" d="M68.6,43.4L68.3,43c-0.3,0.2-0.6,0.3-0.9,0.3c-0.2,0-0.3,0-0.5-0.1l-0.1,0.5c0.2,0.1,0.4,0.1,0.6,0.1
				C67.9,43.9,68.3,43.7,68.6,43.4z"/>
			<path class="st31" d="M68.3,43l0.3,0.4c0.4-0.4,0.7-0.9,0.7-1.5c0-0.3-0.1-0.5-0.1-0.7l-0.5,0.1c0.1,0.2,0.1,0.4,0.1,0.6
				C68.9,42.4,68.6,42.8,68.3,43z"/>
			<path class="st32" d="M66.7,40.6l-0.2-0.4c-0.7,0.3-1.1,1-1.1,1.8c0,0.9,0.6,1.6,1.3,1.9l0.1-0.5c-0.6-0.2-1-0.7-1-1.4
				C65.9,41.3,66.2,40.8,66.7,40.6z"/>
			<path class="st33" d="M67.4,40.4c0.6,0,1.1,0.4,1.3,0.9l0.5-0.1c-0.3-0.7-1-1.2-1.8-1.2c-0.3,0-0.6,0.1-0.9,0.2l0.2,0.4
				C66.9,40.5,67.1,40.4,67.4,40.4z"/>
		</g>
	</g>
</g>
</svg>
